{
	"additionalNodes": [],
	"additionalParameters": {
		"root": {
			"height": 88,
			"width": 180
		}
	},
	"inputs": [],
	"outputs": [],
	"properties": {
		"MZf1SCEZmomZZvrD1qRftD9OY2DCoifS": {
			"height": 90,
			"title": "Common.relativeMove",
			"width": 418,
			"x": 466,
			"y": 100
		},
		"aguTeEu1DsDGLJYXZLI8s1tWAxv3wYeI": {
			"height": 60,
			"title": "sequence",
			"width": 143,
			"x": 236,
			"y": 11
		},
		"dMe0XPOAjQ2D0SmOLsNCTGvTyC22y6Fn": {
			"height": 94,
			"title": "store",
			"width": 214,
			"x": 448,
			"y": -97
		},
		"npQmFm6ZRB6s49069fZ3w9FQEmUkaVyw": {
			"height": 92,
			"title": "store",
			"width": 199,
			"x": 457,
			"y": 5
		}
	},
	"roles": [ {
		"categories": [ "nota_hauptflf_hw.Commander" ],
		"name": "Commander"
	} ],
	"root": {
		"children": [ {
			"children": [],
			"id": "dMe0XPOAjQ2D0SmOLsNCTGvTyC22y6Fn",
			"nodeType": "luaCommand",
			"parameters": [ {
				"name": "var",
				"value": "windData"
			}, {
				"name": "value",
				"value": "Sensors.map.Wind()"
			}, {
				"name": "scriptName",
				"value": "store"
			} ],
			"scriptName": "store"
		}, {
			"children": [],
			"id": "npQmFm6ZRB6s49069fZ3w9FQEmUkaVyw",
			"nodeType": "luaCommand",
			"parameters": [ {
				"name": "var",
				"value": "multiplier"
			}, {
				"name": "value",
				"value": "windData.strength"
			}, {
				"name": "scriptName",
				"value": "store"
			} ],
			"scriptName": "store"
		}, {
			"children": [],
			"id": "MZf1SCEZmomZZvrD1qRftD9OY2DCoifS",
			"nodeType": "luaCommand",
			"parameters": [ {
				"name": "dist",
				"value": "{x=multiplier*windData.dirX,z=multiplier*windData.dirZ}"
			}, {
				"name": "fight",
				"value": "false"
			}, {
				"name": "scriptName",
				"value": "Common.relativeMove"
			} ],
			"scriptName": "Common.relativeMove"
		} ],
		"id": "aguTeEu1DsDGLJYXZLI8s1tWAxv3wYeI",
		"nodeType": "sequence",
		"parameters": []
	}
}